{
  "project_info": {
    "project_number": "1016820071393",
    "firebase_url": "https://umc-hangout.firebaseio.com",
    "project_id": "umc-hangout",
    "storage_bucket": "umc-hangout.appspot.com"
  },
  "client": [
    {
      "client_info": {
        "mobilesdk_app_id": "1:1016820071393:android:5a6bc153581c94b92fb0a0",
        "android_client_info": {
          "package_name": "com.example.flutter_app"
        }
      },
      "oauth_client": [
        {
          "client_id": "1016820071393-irmi7i60chufu0el71elqoj70himgfh5.apps.googleusercontent.com",
          "client_type": 1,
          "android_info": {
            "package_name": "com.example.flutter_app",
            "certificate_hash": "ce790b1da445ac2649c2f4257c5262681a165b34"
          }
        },
        {
          "client_id": "1016820071393-4j6ftr7so9bcn9aif437l8gvbtq7odst.apps.googleusercontent.com",
          "client_type": 3
        }
      ],
      "api_key": [
        {
          "current_key": "AIzaSyBxNGbFLIIbW8q9UT3YQslscU5Xv_Ih5yw"
        }
      ],
      "services": {
        "appinvite_service": {
          "other_platform_oauth_client": [
            {
              "client_id": "1016820071393-4j6ftr7so9bcn9aif437l8gvbtq7odst.apps.googleusercontent.com",
              "client_type": 3
            }
          ]
        }
      }
    },
    {
      "client_info": {
        "mobilesdk_app_id": "1:1016820071393:android:b22a17e68c4f52402fb0a0",
        "android_client_info": {
          "package_name": "com.libs.flutterfirebaseauth"
        }
      },
      "oauth_client": [
        {
          "client_id": "1016820071393-p3augd31vrjlak8p81elf1b6fsnfcnb5.apps.googleusercontent.com",
          "client_type": 1,
          "android_info": {
            "package_name": "com.libs.flutterfirebaseauth",
            "certificate_hash": "ce790b1da445ac2649c2f4257c5262681a165b34"
          }
        },
        {
          "client_id": "1016820071393-4j6ftr7so9bcn9aif437l8gvbtq7odst.apps.googleusercontent.com",
          "client_type": 3
        }
      ],
      "api_key": [
        {
          "current_key": "AIzaSyBxNGbFLIIbW8q9UT3YQslscU5Xv_Ih5yw"
        }
      ],
      "services": {
        "appinvite_service": {
          "other_platform_oauth_client": [
            {
              "client_id": "1016820071393-4j6ftr7so9bcn9aif437l8gvbtq7odst.apps.googleusercontent.com",
              "client_type": 3
            }
          ]
        }
      }
    }
  ],
  "configuration_version": "1"
}